<?xml version="1.0" encoding="UTF-8" standalone="no"?>
<!-- Created with Inkscape (http://www.inkscape.org/) -->

<svg
   xmlns:osb="http://www.openswatchbook.org/uri/2009/osb"
   xmlns:dc="http://purl.org/dc/elements/1.1/"
   xmlns:cc="http://creativecommons.org/ns#"
   xmlns:rdf="http://www.w3.org/1999/02/22-rdf-syntax-ns#"
   xmlns:svg="http://www.w3.org/2000/svg"
   xmlns="http://www.w3.org/2000/svg"
   xmlns:sodipodi="http://sodipodi.sourceforge.net/DTD/sodipodi-0.dtd"
   xmlns:inkscape="http://www.inkscape.org/namespaces/inkscape"
   width="77mm"
   height="64mm"
   viewBox="0 0 46.2 38.399998"
   version="1.1"
   id="svg1538"
   inkscape:version="0.92.4 (5da689c313, 2019-01-14)"
   sodipodi:docname="ui.svg">
  <defs
     id="defs1532">
    <marker
       inkscape:stockid="Arrow1Mstart"
       orient="auto"
       refY="0.0"
       refX="0.0"
       id="Arrow1Mstart"
       style="overflow:visible"
       inkscape:isstock="true">
      <path
         id="path979"
         d="M 0.0,0.0 L 5.0,-5.0 L -12.5,0.0 L 5.0,5.0 L 0.0,0.0 z "
         style="fill-rule:evenodd;stroke:#000000;stroke-width:1pt;stroke-opacity:1;fill:#000000;fill-opacity:1"
         transform="scale(0.4) translate(10,0)" />
    </marker>
    <marker
       inkscape:stockid="Arrow1Lend"
       orient="auto"
       refY="0.0"
       refX="0.0"
       id="Arrow1Lend"
       style="overflow:visible;"
       inkscape:isstock="true">
      <path
         id="path976"
         d="M 0.0,0.0 L 5.0,-5.0 L -12.5,0.0 L 5.0,5.0 L 0.0,0.0 z "
         style="fill-rule:evenodd;stroke:#000000;stroke-width:1pt;stroke-opacity:1;fill:#000000;fill-opacity:1"
         transform="scale(0.8) rotate(180) translate(12.5,0)" />
    </marker>
    <marker
       inkscape:stockid="Arrow1Send"
       orient="auto"
       refY="0.0"
       refX="0.0"
       id="Arrow1Send"
       style="overflow:visible;"
       inkscape:isstock="true">
      <path
         id="path988"
         d="M 0.0,0.0 L 5.0,-5.0 L -12.5,0.0 L 5.0,5.0 L 0.0,0.0 z "
         style="fill-rule:evenodd;stroke:#000000;stroke-width:1pt;stroke-opacity:1;fill:#000000;fill-opacity:1"
         transform="scale(0.2) rotate(180) translate(6,0)" />
    </marker>
    <linearGradient
       id="linearGradient895"
       osb:paint="solid">
      <stop
         style="stop-color:#00fc00;stop-opacity:1;"
         offset="0"
         id="stop893" />
    </linearGradient>
    <marker
       inkscape:isstock="true"
       style="overflow:visible"
       id="marker7882"
       refX="0"
       refY="0"
       orient="auto"
       inkscape:stockid="Arrow1Mend">
      <path
         inkscape:connector-curvature="0"
         transform="matrix(-0.4,0,0,-0.4,-4,0)"
         style="fill:#000000;fill-opacity:1;fill-rule:evenodd;stroke:#000000;stroke-width:1.00000003pt;stroke-opacity:1"
         d="M 0,0 5,-5 -12.5,0 5,5 Z"
         id="path7880" />
    </marker>
    <marker
       inkscape:isstock="true"
       style="overflow:visible"
       id="marker7836"
       refX="0"
       refY="0"
       orient="auto"
       inkscape:stockid="Arrow1Mend">
      <path
         inkscape:connector-curvature="0"
         transform="matrix(-0.4,0,0,-0.4,-4,0)"
         style="fill:#000000;fill-opacity:1;fill-rule:evenodd;stroke:#000000;stroke-width:1.00000003pt;stroke-opacity:1"
         d="M 0,0 5,-5 -12.5,0 5,5 Z"
         id="path7834" />
    </marker>
    <marker
       inkscape:isstock="true"
       style="overflow:visible"
       id="marker7796"
       refX="0"
       refY="0"
       orient="auto"
       inkscape:stockid="Arrow1Mend">
      <path
         inkscape:connector-curvature="0"
         transform="matrix(-0.4,0,0,-0.4,-4,0)"
         style="fill:#000000;fill-opacity:1;fill-rule:evenodd;stroke:#000000;stroke-width:1.00000003pt;stroke-opacity:1"
         d="M 0,0 5,-5 -12.5,0 5,5 Z"
         id="path7794" />
    </marker>
    <inkscape:path-effect
       only_selected="false"
       apply_with_weight="true"
       apply_no_weight="true"
       helper_size="0"
       steps="2"
       weight="33.333333"
       is_visible="true"
       id="path-effect7792"
       effect="bspline" />
    <marker
       inkscape:stockid="Arrow1Lstart"
       orient="auto"
       refY="0"
       refX="0"
       id="Arrow1Lstart"
       style="overflow:visible"
       inkscape:isstock="true">
      <path
         inkscape:connector-curvature="0"
         id="path4979"
         d="M 0,0 5,-5 -12.5,0 5,5 Z"
         style="fill:#000000;fill-opacity:1;fill-rule:evenodd;stroke:#000000;stroke-width:1.00000003pt;stroke-opacity:1"
         transform="matrix(0.8,0,0,0.8,10,0)" />
    </marker>
    <inkscape:path-effect
       effect="bspline"
       id="path-effect6700"
       is_visible="true"
       weight="33.333333"
       steps="2"
       helper_size="0"
       apply_no_weight="true"
       apply_with_weight="true"
       only_selected="false" />
    <inkscape:path-effect
       effect="bspline"
       id="path-effect6690"
       is_visible="true"
       weight="33.333333"
       steps="2"
       helper_size="0"
       apply_no_weight="true"
       apply_with_weight="true"
       only_selected="false" />
    <marker
       inkscape:isstock="true"
       style="overflow:visible;"
       id="Arrow2Mend"
       refX="0.0"
       refY="0.0"
       orient="auto"
       inkscape:stockid="Arrow2Mend">
      <path
         transform="scale(0.6) rotate(180) translate(0,0)"
         d="M 8.7185878,4.0337352 L -2.2072895,0.016013256 L 8.7185884,-4.0017078 C 6.9730900,-1.6296469 6.9831476,1.6157441 8.7185878,4.0337352 z "
         style="fill-rule:evenodd;stroke-width:0.625;stroke-linejoin:round;stroke:#000000;stroke-opacity:1;fill:#000000;fill-opacity:1"
         id="path912" />
    </marker>
    <marker
       inkscape:isstock="true"
       style="overflow:visible"
       id="marker2765"
       refX="0.0"
       refY="0.0"
       orient="auto"
       inkscape:stockid="Arrow1Mstart">
      <path
         transform="scale(0.4) translate(10,0)"
         style="fill-rule:evenodd;stroke:#000000;stroke-width:1pt;stroke-opacity:1;fill:#000000;fill-opacity:1"
         d="M 0.0,0.0 L 5.0,-5.0 L -12.5,0.0 L 5.0,5.0 L 0.0,0.0 z "
         id="path2763" />
    </marker>
    <marker
       inkscape:isstock="true"
       style="overflow:visible"
       id="Arrow1Sstart"
       refX="0.0"
       refY="0.0"
       orient="auto"
       inkscape:stockid="Arrow1Sstart">
      <path
         transform="scale(0.2) translate(6,0)"
         style="fill-rule:evenodd;stroke:#000000;stroke-width:1pt;stroke-opacity:1;fill:#000000;fill-opacity:1"
         d="M 0.0,0.0 L 5.0,-5.0 L -12.5,0.0 L 5.0,5.0 L 0.0,0.0 z "
         id="path897" />
    </marker>
    <marker
       inkscape:isstock="true"
       style="overflow:visible"
       id="Arrow1Mstart-7"
       refX="0.0"
       refY="0.0"
       orient="auto"
       inkscape:stockid="Arrow1Mstart">
      <path
         transform="scale(0.4) translate(10,0)"
         style="fill-rule:evenodd;stroke:#000000;stroke-width:1pt;stroke-opacity:1;fill:#000000;fill-opacity:1"
         d="M 0.0,0.0 L 5.0,-5.0 L -12.5,0.0 L 5.0,5.0 L 0.0,0.0 z "
         id="path891" />
    </marker>
  </defs>
  <sodipodi:namedview
     id="base"
     pagecolor="#ffffff"
     bordercolor="#666666"
     borderopacity="1.0"
     inkscape:pageopacity="0.0"
     inkscape:pageshadow="2"
     inkscape:zoom="1.8409252"
     inkscape:cx="125.8756"
     inkscape:cy="147.02655"
     inkscape:document-units="mm"
     inkscape:current-layer="layer1"
     showgrid="false"
     scale-x="0.6"
     inkscape:window-width="1280"
     inkscape:window-height="747"
     inkscape:window-x="0"
     inkscape:window-y="27"
     inkscape:window-maximized="1" />
  <metadata
     id="metadata1535">
    <rdf:RDF>
      <cc:Work
         rdf:about="">
        <dc:format>image/svg+xml</dc:format>
        <dc:type
           rdf:resource="http://purl.org/dc/dcmitype/StillImage" />
        <dc:title />
      </cc:Work>
    </rdf:RDF>
  </metadata>
  <g
     inkscape:label="Layer 1"
     inkscape:groupmode="layer"
     id="layer1"
     transform="translate(0,-139.8)">
    <rect
       style="opacity:1;fill:#f2f2f2;fill-opacity:1;stroke:#00fc00;stroke-width:0;stroke-miterlimit:4;stroke-dasharray:none;stroke-dashoffset:0;stroke-opacity:1"
       id="rect820"
       width="37.685001"
       height="35.921021"
       x="6.5116258"
       y="140.60632"
       rx="0.98158133" />
    <path
       sodipodi:type="star"
       style="opacity:1;fill:#ff6600;fill-opacity:1;stroke:#00fc00;stroke-width:0;stroke-miterlimit:4;stroke-dasharray:none;stroke-dashoffset:0;stroke-opacity:1"
       id="path993"
       sodipodi:sides="3"
       sodipodi:cx="-26.829664"
       sodipodi:cy="131.85785"
       sodipodi:r1="15.039334"
       sodipodi:r2="11.195255"
       sodipodi:arg1="-0.14648418"
       sodipodi:arg2="1.3107889"
       inkscape:flatsided="false"
       inkscape:rounded="0"
       inkscape:randomized="0"
       d="m -11.951396,129.66269 -12.000105,13.01412 -8.416238,3.16357 -5.270502,-16.89945 1.468383,-8.87046 17.270608,3.88534 z"
       inkscape:transform-center-x="-2.1117124"
       inkscape:transform-center-y="0.8274825"
       transform="matrix(0.76261581,0,0,0.75391629,59.621968,57.380501)" />
    <g
       id="g1476"
       transform="matrix(0.55634125,0,0,0.56308852,52.617558,126.83835)"
       inkscape:export-xdpi="96"
       inkscape:export-ydpi="96">
      <path
         transform="matrix(1.1594836,-0.29972021,0.27515948,1.0328734,74.995861,12.652213)"
         inkscape:transform-center-y="-0.0073845948"
         inkscape:transform-center-x="-0.019788528"
         d="m -103.3977,13.196834 -15.62201,4.209388 -12.88157,-9.7893634 4.16557,-15.6337568 14.91862,-6.2610818 11.45645,11.4243696 z"
         inkscape:randomized="0"
         inkscape:rounded="0"
         inkscape:flatsided="false"
         sodipodi:arg2="1.7641155"
         sodipodi:arg1="0.71691797"
         sodipodi:r2="15.516696"
         sodipodi:r1="16.768923"
         sodipodi:cy="2.178571"
         sodipodi:cx="-116.03869"
         sodipodi:sides="3"
         id="path1271"
         style="opacity:1;fill:#8000eb;fill-opacity:1;stroke:#000000;stroke-width:0;stroke-miterlimit:4;stroke-dasharray:none;stroke-dashoffset:0;stroke-opacity:1"
         sodipodi:type="star" />
      <path
         sodipodi:type="star"
         style="opacity:1;fill:#a400eb;fill-opacity:1;stroke:#000000;stroke-width:0;stroke-miterlimit:4;stroke-dasharray:none;stroke-dashoffset:0;stroke-opacity:1"
         id="path1460"
         sodipodi:sides="3"
         sodipodi:cx="-116.03869"
         sodipodi:cy="2.178571"
         sodipodi:r1="16.768923"
         sodipodi:r2="15.516696"
         sodipodi:arg1="0.71691797"
         sodipodi:arg2="1.7641155"
         inkscape:flatsided="false"
         inkscape:rounded="0"
         inkscape:randomized="0"
         d="m -103.3977,13.196834 -15.62201,4.209388 -12.88157,-9.7893634 4.16557,-15.6337568 14.91862,-6.2610818 11.45645,11.4243696 z"
         inkscape:transform-center-x="-0.010596512"
         inkscape:transform-center-y="-0.0042500663"
         transform="matrix(0.62092563,-0.17251655,0.14735316,0.59451364,19.820841,30.798232)" />
    </g>
    <g
       id="g1464"
       transform="matrix(0.53679653,0,0,0.55572128,66.643848,159.67371)"
       inkscape:export-xdpi="96"
       inkscape:export-ydpi="96">
      <path
         transform="matrix(0.87552707,0,0,0.85083195,-2.0614403,3.3446605)"
         inkscape:transform-center-y="-5.2259061"
         inkscape:transform-center-x="-0.05860414"
         d="m -48.002972,25.991071 -42.955416,0.231869 21.276903,-37.316415 z"
         inkscape:randomized="0"
         inkscape:rounded="0"
         inkscape:flatsided="true"
         sodipodi:arg2="1.5653985"
         sodipodi:arg1="0.51820093"
         sodipodi:r2="12.400341"
         sodipodi:r1="24.800682"
         sodipodi:cy="13.706845"
         sodipodi:cx="-69.547615"
         sodipodi:sides="3"
         id="path1273"
         style="opacity:1;fill:#ff2a2a;fill-opacity:1;stroke:#000000;stroke-width:0;stroke-miterlimit:4;stroke-dasharray:none;stroke-dashoffset:0;stroke-opacity:1"
         sodipodi:type="star" />
      <path
         sodipodi:type="star"
         style="opacity:1;fill:#ff5555;fill-opacity:1;stroke:#000000;stroke-width:0;stroke-miterlimit:4;stroke-dasharray:none;stroke-dashoffset:0;stroke-opacity:1"
         id="path1452"
         sodipodi:sides="3"
         sodipodi:cx="-69.547615"
         sodipodi:cy="13.706845"
         sodipodi:r1="24.800682"
         sodipodi:r2="12.400341"
         sodipodi:arg1="0.51820093"
         sodipodi:arg2="1.5653985"
         inkscape:flatsided="true"
         inkscape:rounded="0"
         inkscape:randomized="0"
         d="m -48.002972,25.991071 -42.955416,0.231869 21.276903,-37.316415 z"
         inkscape:transform-center-x="-1.8045172"
         inkscape:transform-center-y="1.1872553"
         transform="matrix(0.33280931,-0.30429529,0.28097187,0.34038958,-43.768107,-11.053863)" />
    </g>
    <ellipse
       style="opacity:1;fill:#ff2a2a;fill-opacity:1;stroke:#00fc00;stroke-width:0;stroke-miterlimit:4;stroke-dasharray:none;stroke-dashoffset:0;stroke-opacity:1"
       id="path824"
       cx="42.114799"
       cy="142.10173"
       rx="0.58799952"
       ry="0.58799958" />
    <ellipse
       ry="0.58799958"
       rx="0.58799952"
       cy="142.10173"
       cx="39.806068"
       id="ellipse826"
       style="opacity:1;fill:#00e000;fill-opacity:1;stroke:#00fc00;stroke-width:0;stroke-miterlimit:4;stroke-dasharray:none;stroke-dashoffset:0;stroke-opacity:1" />
    <circle
       style="opacity:1;fill:#ffaf00;fill-opacity:1;stroke:#00fc00;stroke-width:0;stroke-miterlimit:4;stroke-dasharray:none;stroke-dashoffset:0;stroke-opacity:1"
       id="ellipse828"
       cx="37.669811"
       cy="142.03705"
       r="0.58799946" />
    <path
       style="fill:none;stroke:#000000;stroke-width:0.15874998;stroke-linecap:butt;stroke-linejoin:miter;stroke-miterlimit:4;stroke-dasharray:0.31749997, 0.63499994;stroke-dashoffset:0;stroke-opacity:1;marker-end:url(#Arrow2Mend)"
       d="m 6.402006,143.52916 c -0.0904,-0.35871 -0.168834,-0.72066 -0.271213,-1.07615 -0.0124,-0.0431 0.03169,0.10275 0,0.13443 -0.03169,0.0317 -0.09435,-0.02 -0.134431,0 -0.161318,0.0807 -0.241977,0.32264 -0.403295,0.4033 -0.04008,0.02 -0.102745,-0.0317 -0.134431,0 -0.03169,0.0317 0.03169,0.10274 0,0.13443 -0.03169,0.0317 -0.102746,-0.0317 -0.134431,0 -0.03169,0.0317 0.03169,0.10274 0,0.13443 -0.03169,0.0317 -0.09435,-0.02 -0.134432,0 -0.297235,0.14862 -0.04172,0.0834 -0.134431,0.26886 -0.279736,0.55947 0.0093,-0.14371 -0.268863,0.13443 -0.07085,0.0709 -0.06358,0.19801 -0.134431,0.26887 -0.03169,0.0317 -0.09435,-0.02 -0.134432,0 -0.05668,0.0283 -0.07775,0.10609 -0.134431,0.13443 -0.04008,0.02 -0.102746,-0.0317 -0.134432,0 -0.03169,0.0317 0.03169,0.10274 0,0.13443 -0.03169,0.0317 -0.08962,0 -0.134431,0 0,0.0448 0.02004,0.0943 0,0.13443 -0.148618,0.29723 -0.08343,0.0417 -0.268863,0.13443 -0.03569,0.0179 -0.385448,0.3676 -0.403294,0.4033 -0.02004,0.0401 0.03169,0.10274 0,0.13443 -0.07085,0.0709 -0.198012,0.0636 -0.268863,0.13443 -0.03169,0.0317 0.03169,0.10274 0,0.13443 -0.03169,0.0317 -0.09435,-0.02 -0.134432,0 -0.05668,0.0283 -0.08962,0.0896 -0.134431,0.13443 -0.581455,0.58146 -0.02107,-0.0356 -0.403294,0.53773 -0.0703,0.10545 -0.212182,0.1555 -0.268863,0.26886 -0.02004,0.0401 0.02004,0.0943 0,0.13443 -0.05668,0.11336 -0.212182,0.1555 -0.268863,0.26886 -0.02004,0.0401 0.02004,0.0944 0,0.13443 -0.02834,0.0567 -0.106091,0.0778 -0.134431,0.13444 -0.02004,0.0401 0.02004,0.0944 0,0.13443 -0.02834,0.0567 -0.106091,0.0778 -0.134432,0.13443 -0.02004,0.0401 0.03169,0.10274 0,0.13443 -0.03169,0.0317 -0.102745,-0.0317 -0.134431,0 -0.03169,0.0317 0.02004,0.0944 0,0.13443 -0.02834,0.0567 -0.106091,0.0778 -0.134432,0.13443 -0.02004,0.0401 0.02004,0.0944 0,0.13443 -0.02834,0.0567 -0.10609,0.0778 -0.134431,0.13444 -0.02004,0.0401 0.02004,0.0943 0,0.13443 -0.05668,0.11336 -0.212182,0.1555 -0.268863,0.26886 -0.04008,0.0802 0.04008,0.1887 0,0.26886 -0.02834,0.0567 -0.106091,0.0778 -0.134431,0.13443 -0.02665,0.0533 0.02748,0.37582 0,0.4033 -0.03169,0.0317 -0.102746,-0.0317 -0.134432,0 -0.0061,0.006 0,0.60877 0,0.67216 0,0.17513 -0.02991,0.52259 0,0.67215 0.02779,0.13895 0.100064,0.26583 0.134432,0.4033 0.02287,0.0915 -0.03676,0.32977 0,0.40329 0.02834,0.0567 0.10609,0.0777 0.134431,0.13443 0.04008,0.0802 -0.02834,0.18384 0,0.26887 0.03169,0.095 0.102746,0.1738 0.134432,0.26886 0.01417,0.0425 -0.02004,0.0943 0,0.13443 0.02834,0.0567 0.10609,0.0777 0.134431,0.13443 0.02004,0.0401 0,0.0896 0,0.13443 0.04481,0.0448 0.09928,0.0817 0.134431,0.13443 0.05558,0.0834 0.102746,0.17381 0.134432,0.26887 0.01417,0.0425 -0.03169,0.10274 0,0.13443 0.03169,0.0317 0.114391,-0.0401 0.134431,0 0.04008,0.0802 -0.04008,0.1887 0,0.26886 0.02004,0.0401 0.102746,-0.0317 0.134432,0 0.03169,0.0317 -0.01417,0.0919 0,0.13443 0.324581,0.97375 -0.03876,-0.21194 0.268862,0.4033 0.04008,0.0802 -0.06337,0.20549 0,0.26886 0.03169,0.0317 0.102746,-0.0317 0.134432,0 0.03169,0.0317 -0.01417,0.0919 0,0.13443 0.03169,0.0951 0.07885,0.18549 0.134431,0.26886 0.0703,0.10546 0.212182,0.1555 0.268863,0.26887 0.02004,0.0401 -0.03169,0.10274 0,0.13443 0.03169,0.0317 0.102746,-0.0317 0.134432,0 0.03169,0.0317 -0.02004,0.0943 0,0.13443 0.02834,0.0567 0.08962,0.0896 0.134431,0.13443 0.04481,0.0448 0.07775,0.10609 0.134431,0.13443 0.04008,0.02 0.09435,-0.02 0.134432,0 0.05668,0.0283 0.07775,0.10609 0.134431,0.13443 0.04091,0.0205 0.342752,0 0.403295,0 0.04481,0 0.08962,0 0.134431,0 0.04481,0 0.09435,0.02 0.134431,0 0.05668,-0.0283 0.07775,-0.10609 0.134432,-0.13443 0.08016,-0.0401 0.205491,0.0634 0.268863,0 0.03169,-0.0317 -0.03169,-0.10274 0,-0.13443 0.03169,-0.0317 0.09435,0.02 0.134431,0 0.05668,-0.0283 0.07775,-0.10609 0.134432,-0.13443 0.04008,-0.02 0.102745,0.0317 0.134431,0 0.03169,-0.0317 -0.03169,-0.10275 0,-0.13443 0.07085,-0.0709 0.198011,-0.0636 0.268863,-0.13443 0.03169,-0.0317 -0.03169,-0.10275 0,-0.13443 0.03169,-0.0317 0.102745,0.0317 0.134431,0 0.0054,-0.005 0,-0.48836 0,-0.53773 0,-0.0494 0.0054,-0.53232 0,-0.53773 -0.03169,-0.0317 -0.102745,0.0317 -0.134431,0 -0.02748,-0.0275 0.02665,-0.34999 0,-0.40329 -0.02834,-0.0567 -0.106091,-0.0777 -0.134432,-0.13443 -0.02004,-0.0401 0.03169,-0.10275 0,-0.13443 -0.03169,-0.0317 -0.102745,0.0317 -0.134431,0 -0.03169,-0.0317 0.02004,-0.0943 0,-0.13443 -0.02834,-0.0567 -0.08962,-0.0896 -0.134431,-0.13444 -0.04481,-0.0448 -0.07775,-0.10609 -0.134432,-0.13443 -0.04008,-0.02 -0.102746,0.0317 -0.134431,0 -0.03169,-0.0317 0.02004,-0.0943 0,-0.13443 -0.01785,-0.0357 -0.367602,-0.38545 -0.403295,-0.40329 -0.04008,-0.02 -0.102745,0.0317 -0.134431,0 -0.03169,-0.0317 0.03169,-0.10275 0,-0.13443 -0.52465,-0.52465 -0.0722,0.0311 -0.403294,-0.13444 -0.05668,-0.0283 -0.07775,-0.10609 -0.134432,-0.13443 -0.01836,-0.009 -0.788229,-0.009 -0.806588,0 -0.05668,0.0283 -0.07775,0.10609 -0.134432,0.13443 -0.04008,0.02 -0.102745,-0.0317 -0.134431,0 -0.03169,0.0317 0.03169,0.10275 0,0.13444 -0.03169,0.0317 -0.09435,-0.02 -0.134432,0 -0.05668,0.0283 -0.07775,0.10609 -0.134431,0.13443 -0.04008,0.02 -0.102746,-0.0317 -0.134431,0 -0.03169,0.0317 0.03169,0.10274 0,0.13443 -0.278144,0.27814 0.01087,-0.42504 -0.268863,0.13443 -0.02004,0.0401 0.02004,0.0943 0,0.13443 -0.02834,0.0567 -0.106091,0.0778 -0.134432,0.13443 -0.02004,0.0401 0.02004,0.0943 0,0.13443 -0.02834,0.0567 -0.10609,0.0778 -0.134431,0.13444 -0.02004,0.0401 0,0.0896 0,0.13443 0,0.0448 0,0.0896 0,0.13443 0,0.22405 0,0.4481 0,0.67216 0,0.13443 0.0221,0.27069 0,0.40329 -0.0233,0.13978 -0.08962,0.26886 -0.134431,0.40329 -0.04481,0.26887 -0.100623,0.53613 -0.134432,0.80659 -0.02779,0.22233 0,0.44811 0,0.67216 0,0.26886 0,0.53773 0,0.80659 0,0.31367 0,0.62735 0,0.94102 0,0.0896 0,0.17924 0,0.26886 0,0.0448 -0.02004,0.0943 0,0.13443 0.02834,0.0567 0.106091,0.0778 0.134432,0.13443 0.02004,0.0401 0,0.0896 0,0.13444 0,0.0608 -0.01791,0.77076 0,0.80659 0.02834,0.0567 0.10609,0.0777 0.134431,0.13443 0.04008,0.0802 -0.02834,0.18384 0,0.26886 0.03169,0.0951 0.102746,0.1738 0.134431,0.26886 0.0418,0.1254 -0.04142,0.54791 0,0.67216 0.02004,0.0601 0.106091,0.0778 0.134432,0.13443 0.03966,0.0793 -0.03082,0.31083 0,0.40329 0.03169,0.0951 0.102745,0.17381 0.134431,0.26887 0.01417,0.0425 -0.02004,0.0944 0,0.13443 0.02834,0.0567 0.106091,0.0778 0.134432,0.13443 0.04008,0.0802 -0.02834,0.18384 0,0.26886 0.03169,0.0951 0.102745,0.17381 0.134431,0.26887 0.01417,0.0425 -0.02004,0.0944 0,0.13443 0.02834,0.0567 0.106091,0.0778 0.134431,0.13443 0.03966,0.0793 -0.03082,0.31083 0,0.40329 0.278144,0.83443 -0.01087,-0.44678 0.268863,0.67216 0.02174,0.0869 0,0.17924 0,0.26886 0,0.17924 0,0.35849 0,0.53773 0,0.0448 -0.03169,0.10274 0,0.13443 0.03169,0.0317 0.102746,-0.0317 0.134432,0 0.03169,0.0317 0.04481,0.13443 0,0.13443 -0.04481,0 -0.04008,-0.15447 0,-0.13443 0.01625,0.008 0.506185,0.51407 0.537725,0.53773 0.08016,0.0601 0.198012,0.0636 0.268863,0.13443 0.278144,0.27814 -0.42504,-0.0109 0.134432,0.26886 0.08016,0.0401 0.188703,-0.0401 0.268863,0 0.05668,0.0283 0.08962,0.0896 0.134431,0.13443 0.08962,0.0896 0.179242,0.17924 0.268863,0.26886 0.08962,0.0896 0.179242,0.17925 0.268863,0.26887 0.04481,0.0448 0.09928,0.0817 0.134431,0.13443 0.01669,0.025 0.260249,0.52911 0.268863,0.53772 0.03169,0.0317 0.102746,-0.0317 0.134431,0 0.0054,0.005 0,0.48836 0,0.53773 0,0.4481 0,0.89621 0,1.34431 0,0.0448 0,0.0896 0,0.13444 0,0.0448 0.03169,0.10274 0,0.13443 -0.03169,0.0317 -0.102745,-0.0317 -0.134431,0 -0.06337,0.0634 0.02834,0.18384 0,0.26886 -0.03169,0.0951 -0.102746,0.1738 -0.134431,0.26886 -0.03156,0.0947 0.03608,0.50165 0,0.53773 -0.03169,0.0317 -0.102746,-0.0317 -0.134432,0 -0.03169,0.0317 0.02004,0.0944 0,0.13443 -0.160954,0.32191 -0.268863,-0.0847 -0.268863,0.26886"
       id="path2577"
       inkscape:connector-curvature="0" />
    <circle
       style="opacity:1;fill:#f2f2f2;fill-opacity:1;stroke:#00fc00;stroke-width:0;stroke-miterlimit:4;stroke-dasharray:none;stroke-dashoffset:0;stroke-opacity:1"
       id="path1433"
       cx="30.915091"
       cy="160.21193"
       r="9.8172178" />
  </g>
</svg>
